RISC_CPU.sim/sim_1/behav/xsim/cpu_tb.vcd
$date
   Fri May 15 19:10:32 2026
$end

$version
  2025.2
  $dumpfile ("cpu_tb.vcd") 
$end

$timescale
  1ps
$end

$scope module cpu_tb $end
$var reg 1 ! clk $end
$var reg 1 " rst $end
$var wire 1 # out_halt $end
$var integer 32 $ pass_cnt [31:0] $end
$var integer 32 % fail_cnt [31:0] $end
$var integer 32 & test_num [31:0] $end
$scope module dut $end
$var wire 1 ' clk $end
$var wire 1 ( rst $end
$var wire 1 # out_halt $end
$var wire 32 ) data_bus [31:0] $end
$var wire 32 * pc_out [31:0] $end
$var wire 5 + operand [4:0] $end
$var wire 32 , ir_addr [31:0] $end
$var wire 32 - mem_addr [31:0] $end
$var wire 3 . opcode [2:0] $end
$var wire 32 / acc_out [31:0] $end
$var wire 32 0 alu_out [31:0] $end
$var wire 1 1 is_zero $end
$var wire 1 2 sel $end
$var wire 1 3 rd $end
$var wire 1 4 ld_ir $end
$var wire 1 5 halt $end
$var wire 1 6 inc_pc $end
$var wire 1 7 ld_ac $end
$var wire 1 8 ld_pc $end
$var wire 1 9 wr $end
$var wire 1 : data_e $end
$scope module u_pc $end
$var wire 1 ' clk $end
$var wire 1 ( reset $end
$var wire 1 6 inc_pc $end
$var wire 1 8 ld_pc $end
$var wire 32 , pc_in [31:0] $end
$var reg 32 ; pc_out [31:0] $end
$upscope $end
$scope module u_address_mux $end
$var wire 1 2 sel $end
$var wire 32 * pc_addr [31:0] $end
$var wire 32 , ir_addr [31:0] $end
$var wire 32 - mem_addr [31:0] $end
$upscope $end
$scope module u_memory $end
$var wire 1 ' clk $end
$var wire 32 - addr [31:0] $end
$var wire 32 ) data [31:0] $end
$var wire 1 3 rd $end
$var wire 1 9 wr $end
$var integer 32 < i [31:0] $end
$upscope $end
$scope module u_ir $end
$var wire 1 ' clk $end
$var wire 1 ( rst $end
$var wire 1 4 ld_ir $end
$var wire 32 ) data_in [31:0] $end
$var wire 3 . opcode [2:0] $end
$var wire 5 + operand [4:0] $end
$var reg 32 = ir_reg [31:0] $end
$upscope $end
$scope module u_alu $end
$var wire 3 . opcode [2:0] $end
$var wire 32 / inA [31:0] $end
$var wire 32 ) inB [31:0] $end
$var reg 32 > out [31:0] $end
$var wire 1 1 is_zero $end
$upscope $end
$scope module u_acc $end
$var wire 1 ' clk $end
$var wire 1 ( rst $end
$var wire 1 7 ld_ac $end
$var wire 32 0 acc_in [31:0] $end
$var wire 1 : data_e $end
$var reg 32 ? acc_out [31:0] $end
$var wire 32 ) data_bus [31:0] $end
$upscope $end
$scope module u_controller $end
$var wire 1 ' clk $end
$var wire 1 ( rst $end
$var wire 1 1 is_zero $end
$var wire 3 . opcode [2:0] $end
$var wire 1 2 sel $end
$var wire 1 3 rd $end
$var wire 1 4 ld_ir $end
$var wire 1 5 halt $end
$var wire 1 6 inc_pc $end
$var wire 1 7 ld_ac $end
$var wire 1 8 ld_pc $end
$var wire 1 9 wr $end
$var wire 1 : data_e $end
$var reg 3 @ state [2:0] $end
$var reg 3 A next_state [2:0] $end
$var wire 1 B is_aluop $end
$upscope $end
$upscope $end
$scope begin mon26 $end
$var integer 32 C k [31:0] $end
$upscope $end
$scope task check $end
$var reg 128 D label [127:0] $end
$var reg 32 E actual [31:0] $end
$var reg 32 F expected [31:0] $end
$upscope $end
$scope task clear_mem $end
$var integer 32 G i [31:0] $end
$upscope $end
$scope task cpu_reset $end
$upscope $end
$scope task wait_halt $end
$var integer 32 H max_cycles [31:0] $end
$var integer 32 I i [31:0] $end
$var reg 1 J timed_out $end
$upscope $end
$scope task print_header $end
$var reg 512 K title [511:0] $end
$upscope $end
$upscope $end
$enddefinitions $end

#0
$dumpvars
0!
1"
x#
b0 $
b0 %
b1 &
0'
1(
bx )
bx *
bx +
b0xxxxx ,
bx -
bx .
bx /
bx 0
01
x2
x3
x4
x5
x6
x7
x8
x9
x:
bx ;
b100000 <
bx =
bx >
bx ?
bx @
bx A
xB
bx C
bx D
bx E
bx F
b100000 G
bx H
bx I
xJ
b100110001000100010000010010000000101111001000000100000101000100010001000010000000101111001000000101001101010100010011110010000000101111001000000100100001001100010101000010000000101000011000100110000101110011011001010110110001101001011011100110010100101001 K
$end

#5000
1!
0#
1'
bz )
b0 *
b0 +
b0 ,
b0 -
b0 .
b0 /
b0 0
11
12
03
04
05
06
07
08
09
0:
b0 ;
b0 =
b0 >
b0 ?
b0 @
b1 A
0B

#10000
0!
0'

#15000
1!
1'

#20000
0!
0'

#25000
1!
1'

#30000
0!
0'

#35000
1!
1'

#36000
0"
0(

#40000
0!
0'

#45000
1!
1'
b10110100 )
13
b1 @
b10 A
b1100100 H
b0 I
1J

#50000
0!
0'

#55000
1!
1'
14
b10 @
b11 A

#56000
b1 I

#60000
0!
0'

#65000
1!
1'
b10100 +
b10100 ,
b101 .
b10110100 0
b10110100 =
b10110100 >
b11 @
b100 A
1B

#66000
b10 I

#70000
0!
0'

#75000
1!
1'
bz )
b10100 -
bz 0
02
03
04
16
bz >
b100 @
b101 A

#76000
b11 I

#80000
0!
0'

#85000
1!
1'
b101 )
b1 *
b101 0
13
06
b1 ;
b101 >
b101 @
b110 A

#86000
b100 I

#90000
0!
0'

#95000
1!
1'
b110 @
b111 A

#96000
b101 I

#100000
0!
0'

#105000
1!
1'
17
b111 @
b0 A

#106000
b110 I

#110000
0!
0'

#115000
1!
1'
bz )
b1 -
b101 /
bz 0
01
12
03
07
bz >
b101 ?
b0 @
b1 A

#116000
b111 I

#120000
0!
0'

#125000
1!
1'
b1010101 )
b1010101 0
13
b1010101 >
b1 @
b10 A

#126000
b1000 I

#130000
0!
0'

#135000
1!
1'
14
b10 @
b11 A

#136000
b1001 I

#140000
0!
0'

#145000
1!
1'
b10101 +
b10101 ,
b10 .
b1011010 0
b1010101 =
b1011010 >
b11 @
b100 A

#146000
b1010 I

#150000
0!
0'

#155000
1!
1'
bz )
b10101 -
b0xxxxxxxx 0
02
03
04
16
b0xxxxxxxx >
b100 @
b101 A

#156000
b1011 I

#160000
0!
0'

#165000
1!
1'
b11 )
b10 *
b1000 0
13
06
b10 ;
b1000 >
b101 @
b110 A

#166000
b1100 I

#170000
0!
0'

#175000
1!
1'
b110 @
b111 A

#176000
b1101 I

#180000
0!
0'

#185000
1!
1'
17
b111 @
b0 A

#186000
b1110 I

#190000
0!
0'

#195000
1!
1'
bz )
b10 -
b1000 /
b0xxxxxxxx 0
12
03
07
b0xxxxxxxx >
b1000 ?
b0 @
b1 A

#196000
b1111 I

#200000
0!
0'

#205000
1!
1'
b11010110 )
b11011110 0
13
b11011110 >
b1 @
b10 A

#206000
b10000 I

#210000
0!
0'

#215000
1!
1'
14
b10 @
b11 A

#216000
b10001 I

#220000
0!
0'

#225000
1!
1'
b10110 +
b10110 ,
b110 .
b1000 0
b11010110 =
b1000 >
b11 @
b100 A
0B

#226000
b10010 I

#230000
0!
0'

#235000
1!
1'
bz )
b10110 -
02
03
04
16
b100 @
b101 A

#236000
b10011 I

#240000
0!
0'

#245000
1!
1'
b11 *
06
b11 ;
b101 @
b110 A

#246000
b10100 I

#250000
0!
0'

#255000
1!
1'
b1000 )
1:
b110 @
b111 A

#256000
b10101 I

#260000
0!
0'

#265000
1!
1'
19
b111 @
b0 A

#266000
b10110 I

#270000
0!
0'

#275000
1!
1'
bz )
b11 -
12
09
0:
b0 @
b1 A

#276000
b10111 I

#280000
0!
0'

#285000
1!
1'
b0 )
13
b1 @
b10 A

#286000
b11000 I

#290000
0!
0'

#295000
1!
1'
14
b10 @
b11 A

#296000
b11001 I

#300000
0!
0'

#305000
1!
1'
b0 +
b0 ,
b0 .
b0 =
b11 @
b100 A

#306000
b11010 I

#310000
0!
0'

#315000
1!
1#
1'
bz )
b0 -
02
03
04
15
b100 @
b101 A

#316000
b1100101 I
0J

#320000
0!
0'

#325000
1!
1'

#330000
0!
0'

#335000
1!
1"
0#
b11 $
b10 &
1'
1(
b0 *
b0 /
b0 0
11
12
05
b0 ;
b0 >
b0 ?
b0 @
b1 A
b110110101100101011011010101101100110010001100000101110100100000011010010110111001110100011000010110001101110100 D
b101 E
b101 F
b100000 G
b10000010100111001000100001000000010111100100000010110000100111101010010 K

#340000
0!
0'

#345000
1!
1'

#350000
0!
0'

#355000
1!
1'

#360000
0!
0'

#365000
1!
1'

#370000
0!
0'

#375000
1!
1'

#376000
0"
0(

#380000
0!
0'

#385000
1!
1'
b10110100 )
13
b1 @
b10 A
b1111000 H
b0 I
1J

#390000
0!
0'

#395000
1!
1'
14
b10 @
b11 A

#396000
b1 I

#400000
0!
0'

#405000
1!
1'
b10100 +
b10100 ,
b101 .
b10110100 0
b10110100 =
b10110100 >
b11 @
b100 A
1B

#406000
b10 I

#410000
0!
0'

#415000
1!
1'
bz )
b10100 -
bz 0
02
03
04
16
bz >
b100 @
b101 A

#416000
b11 I

#420000
0!
0'

#425000
1!
1'
b11111111 )
b1 *
b11111111 0
13
06
b1 ;
b11111111 >
b101 @
b110 A

#426000
b100 I

#430000
0!
0'

#435000
1!
1'
b110 @
b111 A

#436000
b101 I

#440000
0!
0'

#445000
1!
1'
17
b111 @
b0 A

#446000
b110 I

#450000
0!
0'

#455000
1!
1'
bz )
b1 -
b11111111 /
bz 0
01
12
03
07
bz >
b11111111 ?
b0 @
b1 A

#456000
b111 I

#460000
0!
0'

#465000
1!
1'
b1110101 )
b1110101 0
13
b1110101 >
b1 @
b10 A

#466000
b1000 I

#470000
0!
0'

#475000
1!
1'
14
b10 @
b11 A

#476000
b1001 I

#480000
0!
0'

#485000
1!
1'
b10101 +
b10101 ,
b11 .
b1110101 =
b11 @
b100 A

#486000
b1010 I

#490000
0!
0'

#495000
1!
1'
bz )
b10101 -
b0xxxxxxxx 0
02
03
04
16
b0xxxxxxxx >
b100 @
b101 A

#496000
b1011 I

#500000
0!
0'

#505000
1!
1'
b1111 )
b10 *
b1111 0
13
06
b10 ;
b1111 >
b101 @
b110 A

#506000
b1100 I

#510000
0!
0'

#515000
1!
1'
b110 @
b111 A

#516000
b1101 I

#520000
0!
0'

#525000
1!
1'
17
b111 @
b0 A

#526000
b1110 I

#530000
0!
0'

#535000
1!
1'
bz )
b10 -
b1111 /
b0xxxx 0
12
03
07
b0xxxx >
b1111 ?
b0 @
b1 A

#536000
b1111 I

#540000
0!
0'

#545000
1!
1'
b10010110 )
b110 0
13
b110 >
b1 @
b10 A

#546000
b10000 I

#550000
0!
0'

#555000
1!
1'
14
b10 @
b11 A

#556000
b10001 I

#560000
0!
0'

#565000
1!
1'
b10110 +
b10110 ,
b100 .
b10011001 0
b10010110 =
b10011001 >
b11 @
b100 A

#566000
b10010 I

#570000
0!
0'

#575000
1!
1'
bz )
b10110 -
bx 0
02
03
04
16
bx >
b100 @
b101 A

#576000
b10011 I

#580000
0!
0'

#585000
1!
1'
b10101010 )
b11 *
b10100101 0
13
06
b11 ;
b10100101 >
b101 @
b110 A

#586000
b10100 I

#590000
0!
0'

#595000
1!
1'
b110 @
b111 A

#596000
b10101 I

#600000
0!
0'

#605000
1!
1'
17
b111 @
b0 A

#606000
b10110 I

#610000
0!
0'

#615000
1!
1'
bz )
b11 -
b10100101 /
bx 0
12
03
07
bx >
b10100101 ?
b0 @
b1 A

#616000
b10111 I

#620000
0!
0'

#625000
1!
1'
b11010111 )
b1110010 0
13
b1110010 >
b1 @
b10 A

#626000
b11000 I

#630000
0!
0'

#635000
1!
1'
14
b10 @
b11 A

#636000
b11001 I

#640000
0!
0'

#645000
1!
1'
b10111 +
b10111 ,
b110 .
b10100101 0
b11010111 =
b10100101 >
b11 @
b100 A
0B

#646000
b11010 I

#650000
0!
0'

#655000
1!
1'
bz )
b10111 -
02
03
04
16
b100 @
b101 A

#656000
b11011 I

#660000
0!
0'

#665000
1!
1'
b100 *
06
b100 ;
b101 @
b110 A

#666000
b11100 I

#670000
0!
0'

#675000
1!
1'
b10100101 )
1:
b110 @
b111 A

#676000
b11101 I

#680000
0!
0'

#685000
1!
1'
19
b111 @
b0 A

#686000
b11110 I

#690000
0!
0'

#695000
1!
1'
bz )
b100 -
12
09
0:
b0 @
b1 A

#696000
b11111 I

#700000
0!
0'

#705000
1!
1'
b0 )
13
b1 @
b10 A

#706000
b100000 I

#710000
0!
0'

#715000
1!
1'
14
b10 @
b11 A

#716000
b100001 I

#720000
0!
0'

#725000
1!
1'
b0 +
b0 ,
b0 .
b0 =
b11 @
b100 A

#726000
b100010 I

#730000
0!
0'

#735000
1!
1#
1'
bz )
b0 -
02
03
04
15
b100 @
b101 A

#736000
b1111001 I
0J

#740000
0!
0'

#745000
1!
1'

#750000
0!
0'

#755000
1!
1"
0#
b101 $
b11 &
1'
1(
b0 *
b0 /
b0 0
11
12
05
b0 ;
b0 >
b0 ?
b0 @
b1 A
b1101101011001010110110101011011001100100011001101011101001000000010100001010011010101000100111100101001 D
b10100101 E
b10100101 F
b100000 G
b10100110100101101011010001000000010110100100000011100110110101101101001011100000010000001110111011010000110010101101110001000000100000101000011010000110011110100110000 K

#760000
0!
0'

#765000
1!
1'

#770000
0!
0'

#775000
1!
1'

#780000
0!
0'

#785000
1!
1'

#790000
0!
0'

#795000
1!
1'

#796000
0"
0(

#800000
0!
0'

#805000
1!
1'
b10110100 )
13
b1 @
b10 A
b0 I
1J

#810000
0!
0'

#815000
1!
1'
14
b10 @
b11 A

#816000
b1 I

#820000
0!
0'

#825000
1!
1'
b10100 +
b10100 ,
b101 .
b10110100 0
b10110100 =
b10110100 >
b11 @
b100 A
1B

#826000
b10 I

#830000
0!
0'

#835000
1!
1'
bz )
b10100 -
bz 0
02
03
04
16
bz >
b100 @
b101 A

#836000
b11 I

#840000
0!
0'

#845000
1!
1'
b0 )
b1 *
b0 0
13
06
b1 ;
b0 >
b101 @
b110 A

#846000
b100 I

#850000
0!
0'

#855000
1!
1'
b110 @
b111 A

#856000
b101 I

#860000
0!
0'

#865000
1!
1'
17
b111 @
b0 A

#866000
b110 I

#870000
0!
0'

#875000
1!
1'
bz )
b1 -
bz 0
12
03
07
bz >
b0 @
b1 A

#876000
b111 I

#880000
0!
0'

#885000
1!
1'
b100000 )
b100000 0
13
b100000 >
b1 @
b10 A

#886000
b1000 I

#890000
0!
0'

#895000
1!
1'
14
b10 @
b11 A

#896000
b1001 I

#900000
0!
0'

#905000
1!
1'
b0 +
b0 ,
b1 .
b0 0
b100000 =
b0 >
b11 @
b100 A
0B

#906000
b1010 I

#910000
0!
0'

#915000
1!
1'
bz )
b0 -
02
03
04
16
b100 @
b101 A

#916000
b1011 I

#920000
0!
0'

#925000
1!
1'
b10 *
06
b10 ;
b101 @
b110 A

#926000
b1100 I

#930000
0!
0'

#935000
1!
1'
16
b110 @
b111 A

#936000
b1101 I

#940000
0!
0'

#945000
1!
1'
b11 *
06
b11 ;
b111 @
b0 A

#946000
b1110 I

#950000
0!
0'

#955000
1!
1'
b11 -
12
b0 @
b1 A

#956000
b1111 I

#960000
0!
0'

#965000
1!
1'
b11010110 )
13
b1 @
b10 A

#966000
b10000 I

#970000
0!
0'

#975000
1!
1'
14
b10 @
b11 A

#976000
b10001 I

#980000
0!
0'

#985000
1!
1'
b10110 +
b10110 ,
b110 .
b11010110 =
b11 @
b100 A

#986000
b10010 I

#990000
0!
0'

#995000
1!
1'
bz )
b10110 -
02
03
04
16
b100 @
b101 A

#996000
b10011 I
